id,enabled,name,movement,animation,spriteSheet,chance,map,startFloor,endFloor,levelMultipler,dropChance,forceDrop,agro,hp,minDamage,maxDamage,defense,bonus,bonusValue,description
rat,TRUE,Rat,random,fast,rat,,dungeon,1,,0.5,0.5,,2,1,1,1,,,,Generic Rat
skull,TRUE,Flaming Skull,random,fast,skull,,dungeon,1,,0.75,0.5,,2,2,2,2,,fire,1,Flaming Skull
skeleton,TRUE,Skeleton,hunt,slow,skeleton,,dungeon,1,,1,0.5,,2,3,2,3,5,,,Spooky Skeleton
orc,TRUE,Orc,hunt,fast,orc,,dungeon,1,,1,0.5,,2,4,3,4,10,poison,1,Orc