{ "compressionlevel":0,
 "editorsettings":
    {
     "export":
        {
         "target":"."
        }
    },
 "height":4,
 "infinite":false,
 "layers":[
        {
         "data":[171, 172, 176, 187, 223, 224, 203, 239, 240, 251, 255, 256],
         "height":4,
         "id":13,
         "name":"face",
         "opacity":1,
         "type":"tilelayer",
         "visible":true,
         "width":3,
         "x":0,
         "y":0
        }, 
        {
         "draworder":"topdown",
         "id":42,
         "name":"spades",
         "objects":[
                {
                 "gid":50,
                 "height":32,
                 "id":174,
                 "name":"",
                 "rotation":0,
                 "type":"",
                 "visible":true,
                 "width":32,
                 "x":7.7272727272727,
                 "y":48
                }, 
                {
                 "gid":1073741861,
                 "height":32,
                 "id":188,
                 "name":"",
                 "rotation":0,
                 "type":"",
                 "visible":true,
                 "width":32,
                 "x":-6.18181818181818,
                 "y":70.3636363636364
                }, 
                {
                 "gid":37,
                 "height":32,
                 "id":189,
                 "name":"",
                 "rotation":0,
                 "type":"",
                 "visible":true,
                 "width":32,
                 "x":22.7272727272727,
                 "y":26.1818181818182
                }],
         "opacity":1,
         "type":"objectgroup",
         "visible":false,
         "x":0,
         "y":0
        }, 
        {
         "draworder":"topdown",
         "id":43,
         "name":"clubs",
         "objects":[
                {
                 "gid":49,
                 "height":32,
                 "id":177,
                 "name":"",
                 "rotation":0,
                 "type":"",
                 "visible":true,
                 "width":32,
                 "x":7.3636363636364,
                 "y":48.4545454545455
                }, 
                {
                 "gid":36,
                 "height":32,
                 "id":190,
                 "name":"",
                 "rotation":0,
                 "type":"",
                 "visible":true,
                 "width":32,
                 "x":22.9090909090909,
                 "y":26
                }, 
                {
                 "gid":1073741860,
                 "height":32,
                 "id":191,
                 "name":"",
                 "rotation":0,
                 "type":"",
                 "visible":true,
                 "width":32,
                 "x":-6.18181818181818,
                 "y":69.8181818181818
                }],
         "opacity":1,
         "type":"objectgroup",
         "visible":false,
         "x":0,
         "y":0
        }, 
        {
         "draworder":"topdown",
         "id":32,
         "name":"hearts",
         "objects":[
                {
                 "gid":41,
                 "height":32,
                 "id":176,
                 "name":"",
                 "rotation":0,
                 "type":"",
                 "visible":true,
                 "width":32,
                 "x":7.3636363636364,
                 "y":48.4545454545455
                }, 
                {
                 "gid":28,
                 "height":32,
                 "id":192,
                 "name":"",
                 "rotation":0,
                 "type":"",
                 "visible":true,
                 "width":32,
                 "x":22.9090909090909,
                 "y":26.1818181818182
                }, 
                {
                 "gid":1073741852,
                 "height":32,
                 "id":193,
                 "name":"",
                 "rotation":0,
                 "type":"",
                 "visible":true,
                 "width":32,
                 "x":-6.18181818181818,
                 "y":70.3636363636364
                }],
         "opacity":1,
         "type":"objectgroup",
         "visible":false,
         "x":0,
         "y":0
        }, 
        {
         "draworder":"topdown",
         "id":39,
         "name":"diamonds",
         "objects":[
                {
                 "gid":42,
                 "height":32,
                 "id":175,
                 "name":"",
                 "rotation":0,
                 "type":"",
                 "visible":true,
                 "width":32,
                 "x":7.3636363636364,
                 "y":48.4545454545455
                }, 
                {
                 "gid":29,
                 "height":32,
                 "id":194,
                 "name":"",
                 "rotation":0,
                 "type":"",
                 "visible":true,
                 "width":32,
                 "x":23.2727272727273,
                 "y":26
                }, 
                {
                 "gid":29,
                 "height":32,
                 "id":195,
                 "name":"",
                 "rotation":0,
                 "type":"",
                 "visible":true,
                 "width":32,
                 "x":-6.18181818181818,
                 "y":69.8181818181818
                }],
         "opacity":1,
         "type":"objectgroup",
         "visible":false,
         "x":0,
         "y":0
        }, 
        {
         "draworder":"topdown",
         "id":20,
         "name":"health",
         "objects":[
                {
                 "gid":18,
                 "height":32,
                 "id":202,
                 "name":"",
                 "properties":[
                        {
                         "name":"decorType",
                         "type":"string",
                         "value":"bounce"
                        }],
                 "rotation":0,
                 "type":"decor",
                 "visible":true,
                 "width":32,
                 "x":8.125,
                 "y":50
                }],
         "opacity":1,
         "type":"objectgroup",
         "visible":false,
         "x":0,
         "y":0
        }, 
        {
         "draworder":"topdown",
         "id":50,
         "name":"defend",
         "objects":[
                {
                 "gid":1073741826,
                 "height":32,
                 "id":204,
                 "name":"",
                 "rotation":180,
                 "type":"",
                 "visible":true,
                 "width":32,
                 "x":39.75,
                 "y":18
                }],
         "opacity":1,
         "type":"objectgroup",
         "visible":false,
         "x":0,
         "y":0
        }, 
        {
         "draworder":"topdown",
         "id":22,
         "name":"mana",
         "objects":[
                {
                 "gid":26,
                 "height":32,
                 "id":199,
                 "name":"",
                 "properties":[
                        {
                         "name":"decorType",
                         "type":"string",
                         "value":"bounce"
                        }],
                 "rotation":0,
                 "type":"decor",
                 "visible":true,
                 "width":32,
                 "x":8,
                 "y":48
                }],
         "opacity":1,
         "type":"objectgroup",
         "visible":false,
         "x":0,
         "y":0
        }, 
        {
         "draworder":"topdown",
         "id":49,
         "name":"attack",
         "objects":[
                {
                 "gid":1,
                 "height":32,
                 "id":203,
                 "name":"",
                 "rotation":0,
                 "type":"",
                 "visible":true,
                 "width":32,
                 "x":7.75,
                 "y":48.875
                }],
         "opacity":1,
         "type":"objectgroup",
         "visible":false,
         "x":0,
         "y":0
        }, 
        {
         "draworder":"topdown",
         "id":21,
         "name":"poison",
         "objects":[
                {
                 "gid":17,
                 "height":32,
                 "id":200,
                 "name":"",
                 "properties":[
                        {
                         "name":"decorType",
                         "type":"string",
                         "value":"bounce"
                        }],
                 "rotation":0,
                 "type":"decor",
                 "visible":true,
                 "width":32,
                 "x":8,
                 "y":49
                }],
         "opacity":1,
         "type":"objectgroup",
         "visible":false,
         "x":0,
         "y":0
        }, 
        {
         "draworder":"topdown",
         "id":46,
         "name":"text",
         "objects":[
                {
                 "height":17.2727272727273,
                 "id":171,
                 "name":"text",
                 "properties":[
                        {
                         "name":"color",
                         "type":"color",
                         "value":"#ff0d0d0d"
                        }, 
                        {
                         "name":"font",
                         "type":"string",
                         "value":"font\/silver.ttf"
                        }, 
                        {
                         "name":"labelStrokeColor",
                         "type":"color",
                         "value":"#fffff9f9"
                        }, 
                        {
                         "name":"size",
                         "type":"int",
                         "value":20
                        }, 
                        {
                         "name":"stroked",
                         "type":"bool",
                         "value":false
                        }, 
                        {
                         "name":"text",
                         "type":"string",
                         "value":"A"
                        }],
                 "rotation":0,
                 "type":"label",
                 "visible":true,
                 "width":14,
                 "x":3.72727272727273,
                 "y":6.18181818181818
                }, 
                {
                 "height":17.2727272727273,
                 "id":179,
                 "name":"upsideDown",
                 "properties":[
                        {
                         "name":"color",
                         "type":"color",
                         "value":"#ff0d0d0d"
                        }, 
                        {
                         "name":"font",
                         "type":"string",
                         "value":"font\/silver.ttf"
                        }, 
                        {
                         "name":"labelStrokeColor",
                         "type":"color",
                         "value":"#fffff9f9"
                        }, 
                        {
                         "name":"size",
                         "type":"int",
                         "value":20
                        }, 
                        {
                         "name":"stroked",
                         "type":"bool",
                         "value":false
                        }, 
                        {
                         "name":"text",
                         "type":"string",
                         "value":"A"
                        }],
                 "rotation":-180,
                 "type":"label",
                 "visible":true,
                 "width":13.6363636363636,
                 "x":44.1818181818182,
                 "y":60.0909090909091
                }],
         "opacity":1,
         "type":"objectgroup",
         "visible":true,
         "x":0,
         "y":0
        }, 
        {
         "draworder":"topdown",
         "id":47,
         "name":"hold",
         "objects":[
                {
                 "gid":27,
                 "height":32,
                 "id":205,
                 "name":"",
                 "rotation":0,
                 "type":"",
                 "visible":true,
                 "width":32,
                 "x":8,
                 "y":2
                }],
         "opacity":1,
         "type":"objectgroup",
         "visible":true,
         "x":0,
         "y":0
        }, 
        {
         "draworder":"topdown",
         "id":48,
         "name":"fold",
         "objects":[
                {
                 "gid":35,
                 "height":32,
                 "id":206,
                 "name":"",
                 "rotation":0,
                 "type":"",
                 "visible":true,
                 "width":32,
                 "x":8,
                 "y":2
                }],
         "opacity":1,
         "type":"objectgroup",
         "visible":true,
         "x":0,
         "y":0
        }, 
        {
         "data":[229, 231, 234, 245, 263, 266, 261, 263, 282, 309, 311, 314],
         "height":4,
         "id":44,
         "name":"back",
         "opacity":1,
         "type":"tilelayer",
         "visible":false,
         "width":3,
         "x":0,
         "y":0
        }],
 "nextlayerid":51,
 "nextobjectid":207,
 "orientation":"orthogonal",
 "renderorder":"right-down",
 "tiledversion":"1.3.3",
 "tileheight":16,
 "tilesets":[
        {
         "columns":8,
         "firstgid":1,
         "image":"cards.png",
         "imageheight":256,
         "imagewidth":256,
         "margin":0,
         "name":"cards32",
         "spacing":0,
         "tilecount":64,
         "tileheight":32,
         "tilewidth":32
        }, 
        {
         "columns":16,
         "firstgid":65,
         "image":"cards.png",
         "imageheight":256,
         "imagewidth":256,
         "margin":0,
         "name":"cards",
         "spacing":0,
         "tilecount":256,
         "tileheight":16,
         "tilewidth":16
        }],
 "tilewidth":16,
 "type":"map",
 "version":1.2,
 "width":3
}