{ "compressionlevel":-1,
 "editorsettings":
    {
     "export":
        {
         "target":"."
        }
    },
 "height":1,
 "infinite":false,
 "layers":[
        {
         "data":[10, 11, 11, 11, 12],
         "height":1,
         "id":4,
         "name":"Tile Layer 1",
         "opacity":1,
         "type":"tilelayer",
         "visible":true,
         "width":5,
         "x":0,
         "y":0
        }, 
        {
         "draworder":"topdown",
         "id":3,
         "name":"text",
         "objects":[
                {
                 "height":15.4848,
                 "id":3,
                 "name":"text",
                 "properties":[
                        {
                         "name":"color",
                         "type":"color",
                         "value":"#ff000000"
                        }, 
                        {
                         "name":"font",
                         "type":"string",
                         "value":"font\/silver.ttf"
                        }, 
                        {
                         "name":"size",
                         "type":"int",
                         "value":18
                        }, 
                        {
                         "name":"strokeColor",
                         "type":"color",
                         "value":"#ffe09170"
                        }, 
                        {
                         "name":"stroked",
                         "type":"bool",
                         "value":true
                        }, 
                        {
                         "name":"text",
                         "type":"string",
                         "value":"Confirm?"
                        }],
                 "rotation":0,
                 "type":"label",
                 "visible":true,
                 "width":111.984,
                 "x":23.508,
                 "y":7.7576
                }],
         "opacity":1,
         "type":"objectgroup",
         "visible":true,
         "x":0,
         "y":0
        }],
 "nextlayerid":5,
 "nextobjectid":4,
 "orientation":"orthogonal",
 "renderorder":"right-down",
 "tiledversion":"1.3.4",
 "tileheight":32,
 "tilesets":[
        {
         "columns":15,
         "firstgid":1,
         "image":"ui.png",
         "imageheight":480,
         "imagewidth":480,
         "margin":0,
         "name":"ui",
         "spacing":0,
         "tilecount":225,
         "tileheight":32,
         "tilewidth":32
        }],
 "tilewidth":32,
 "type":"map",
 "version":1.2,
 "width":5
}