{ "compressionlevel":-1,
 "editorsettings":
    {
     "export":
        {
         "target":"."
        }
    },
 "height":2,
 "infinite":false,
 "layers":[
        {
         "draworder":"topdown",
         "id":17,
         "name":"emptyBars",
         "objects":[
                {
                 "gid":10,
                 "height":8.45454545454545,
                 "id":46,
                 "name":"",
                 "rotation":0,
                 "type":"",
                 "visible":true,
                 "width":39.8295454545455,
                 "x":9.05303030303027,
                 "y":14.5000000000001
                }, 
                {
                 "gid":314,
                 "height":7.79318,
                 "id":58,
                 "name":"",
                 "rotation":0,
                 "type":"",
                 "visible":true,
                 "width":38.5303333333333,
                 "x":80.3331833333334,
                 "y":14.3303416666666
                }, 
                {
                 "gid":314,
                 "height":8.61039,
                 "id":59,
                 "name":"",
                 "rotation":0,
                 "type":"",
                 "visible":true,
                 "width":38.2803333333333,
                 "x":88.62485,
                 "y":33.322275
                }],
         "opacity":0.69,
         "type":"objectgroup",
         "visible":true,
         "x":0,
         "y":0
        }, 
        {
         "draworder":"topdown",
         "id":16,
         "name":"bars",
         "objects":[
                {
                 "gid":12,
                 "height":8.31818181818182,
                 "id":35,
                 "name":"xp",
                 "properties":[
                        {
                         "name":"anchorX",
                         "type":"float",
                         "value":1
                        }],
                 "rotation":0,
                 "type":"",
                 "visible":true,
                 "width":38.7234848484848,
                 "x":8.8333333333332,
                 "y":14.3181818181818
                }, 
                {
                 "gid":313,
                 "height":7.9572,
                 "id":61,
                 "name":"healthBar",
                 "properties":[
                        {
                         "name":"anchorX",
                         "type":"float",
                         "value":0
                        }],
                 "rotation":0,
                 "type":"",
                 "visible":true,
                 "width":38.5745666666667,
                 "x":80.4095166666667,
                 "y":13.8563083333333
                }, 
                {
                 "gid":309,
                 "height":7.91667,
                 "id":60,
                 "name":"manaBar",
                 "properties":[
                        {
                         "name":"anchorX",
                         "type":"float",
                         "value":0
                        }],
                 "rotation":0,
                 "type":"",
                 "visible":true,
                 "width":36.9859333333333,
                 "x":90.0321833333334,
                 "y":32.703175
                }, 
                {
                 "gid":1073741929,
                 "height":32,
                 "id":81,
                 "name":"",
                 "rotation":180,
                 "type":"",
                 "visible":true,
                 "width":32,
                 "x":36.0625,
                 "y":33
                }, 
                {
                 "gid":1073741927,
                 "height":32,
                 "id":82,
                 "name":"",
                 "rotation":180,
                 "type":"",
                 "visible":true,
                 "width":32,
                 "x":67.0625,
                 "y":33
                }, 
                {
                 "gid":1073741927,
                 "height":32,
                 "id":86,
                 "name":"",
                 "rotation":180,
                 "type":"",
                 "visible":true,
                 "width":32,
                 "x":59.25,
                 "y":15
                }, 
                {
                 "gid":1073741929,
                 "height":32,
                 "id":87,
                 "name":"",
                 "rotation":180,
                 "type":"",
                 "visible":true,
                 "width":32,
                 "x":28.25,
                 "y":15
                }, 
                {
                 "gid":118,
                 "height":32,
                 "id":89,
                 "name":"",
                 "rotation":0,
                 "type":"",
                 "visible":true,
                 "width":32,
                 "x":61,
                 "y":64.25
                }, 
                {
                 "gid":120,
                 "height":32,
                 "id":90,
                 "name":"",
                 "rotation":0,
                 "type":"",
                 "visible":true,
                 "width":32,
                 "x":92,
                 "y":64.25
                }, 
                {
                 "gid":1073741927,
                 "height":32,
                 "id":98,
                 "name":"",
                 "rotation":180,
                 "type":"",
                 "visible":true,
                 "width":32,
                 "x":67.0625,
                 "y":33
                }, 
                {
                 "gid":1073741929,
                 "height":32,
                 "id":99,
                 "name":"",
                 "rotation":180,
                 "type":"",
                 "visible":true,
                 "width":32,
                 "x":36.0625,
                 "y":33
                }, 
                {
                 "gid":1073741929,
                 "height":32,
                 "id":100,
                 "name":"",
                 "rotation":180,
                 "type":"",
                 "visible":true,
                 "width":32,
                 "x":28.25,
                 "y":15
                }, 
                {
                 "gid":1073741927,
                 "height":32,
                 "id":101,
                 "name":"",
                 "rotation":180,
                 "type":"",
                 "visible":true,
                 "width":32,
                 "x":59.25,
                 "y":15
                }],
         "opacity":1,
         "type":"objectgroup",
         "visible":true,
         "x":0,
         "y":0
        }, 
        {
         "draworder":"topdown",
         "id":10,
         "name":"decor",
         "objects":[
                {
                 "gid":1073741972,
                 "height":32,
                 "id":50,
                 "name":"",
                 "rotation":180,
                 "type":"",
                 "visible":true,
                 "width":32,
                 "x":67,
                 "y":-4
                }, 
                {
                 "gid":1073741974,
                 "height":32,
                 "id":52,
                 "name":"",
                 "rotation":180,
                 "type":"",
                 "visible":true,
                 "width":32,
                 "x":36,
                 "y":-4
                }, 
                {
                 "gid":133,
                 "height":32,
                 "id":62,
                 "name":"",
                 "rotation":0,
                 "type":"",
                 "visible":true,
                 "width":32,
                 "x":61,
                 "y":28
                }, 
                {
                 "gid":135,
                 "height":32,
                 "id":64,
                 "name":"",
                 "rotation":0,
                 "type":"",
                 "visible":true,
                 "width":32,
                 "x":92,
                 "y":28
                }, 
                {
                 "gid":135,
                 "height":32,
                 "id":65,
                 "name":"",
                 "rotation":0,
                 "type":"",
                 "visible":true,
                 "width":32,
                 "x":100,
                 "y":47
                }, 
                {
                 "gid":133,
                 "height":32,
                 "id":67,
                 "name":"",
                 "rotation":0,
                 "type":"",
                 "visible":true,
                 "width":32,
                 "x":69,
                 "y":47
                }],
         "opacity":1,
         "type":"objectgroup",
         "visible":true,
         "x":0,
         "y":0
        }, 
        {
         "draworder":"topdown",
         "id":21,
         "name":"icons",
         "objects":[
                {
                 "gid":238,
                 "height":18,
                 "id":70,
                 "name":"",
                 "rotation":0,
                 "type":"",
                 "visible":true,
                 "width":18,
                 "x":64.3334833333333,
                 "y":20.5587083333333
                }, 
                {
                 "gid":270,
                 "height":18,
                 "id":71,
                 "name":"",
                 "rotation":0,
                 "type":"",
                 "visible":true,
                 "width":18,
                 "x":72.37515,
                 "y":37.1420416666667
                }, 
                {
                 "gid":1073742078,
                 "height":18,
                 "id":83,
                 "name":"",
                 "rotation":180,
                 "type":"",
                 "visible":true,
                 "width":18,
                 "x":63.8125,
                 "y":37.75
                }, 
                {
                 "gid":262,
                 "height":18,
                 "id":88,
                 "name":"",
                 "rotation":0,
                 "type":"",
                 "visible":true,
                 "width":18,
                 "x":37.75,
                 "y":39
                }, 
                {
                 "gid":247,
                 "height":18,
                 "id":72,
                 "name":"",
                 "rotation":0,
                 "type":"",
                 "visible":true,
                 "width":18,
                 "x":65.5909090909091,
                 "y":55.9280303030303
                }, 
                {
                 "gid":263,
                 "height":18,
                 "id":93,
                 "name":"",
                 "rotation":0,
                 "type":"",
                 "visible":true,
                 "width":18,
                 "x":46,
                 "y":19.5
                }, 
                {
                 "gid":1073742078,
                 "height":18,
                 "id":96,
                 "name":"",
                 "rotation":180,
                 "type":"",
                 "visible":true,
                 "width":18,
                 "x":63.8125,
                 "y":37.75
                }, 
                {
                 "gid":262,
                 "height":18,
                 "id":97,
                 "name":"",
                 "rotation":0,
                 "type":"",
                 "visible":true,
                 "width":18,
                 "x":37.75,
                 "y":39
                }],
         "opacity":1,
         "type":"objectgroup",
         "visible":true,
         "x":0,
         "y":0
        }, 
        {
         "draworder":"topdown",
         "id":18,
         "name":"text",
         "objects":[
                {
                 "height":11,
                 "id":45,
                 "name":"lvl",
                 "properties":[
                        {
                         "name":"align",
                         "type":"string",
                         "value":"center"
                        }, 
                        {
                         "name":"color",
                         "type":"color",
                         "value":"#ffece9e9"
                        }, 
                        {
                         "name":"font",
                         "type":"string",
                         "value":"font\/silver.ttf"
                        }, 
                        {
                         "name":"size",
                         "type":"int",
                         "value":11
                        }, 
                        {
                         "name":"strokeColor",
                         "type":"color",
                         "value":"#e1000000"
                        }, 
                        {
                         "name":"strokeWidth",
                         "type":"float",
                         "value":0.5
                        }, 
                        {
                         "name":"stroked",
                         "type":"bool",
                         "value":true
                        }, 
                        {
                         "name":"text",
                         "type":"string",
                         "value":"99"
                        }],
                 "rotation":0,
                 "type":"label",
                 "visible":true,
                 "width":35.5,
                 "x":10.5681818181818,
                 "y":5.99621212121213
                }, 
                {
                 "height":10.2348,
                 "id":68,
                 "name":"hp",
                 "properties":[
                        {
                         "name":"align",
                         "type":"string",
                         "value":"left"
                        }, 
                        {
                         "name":"color",
                         "type":"color",
                         "value":"#ffffffff"
                        }, 
                        {
                         "name":"font",
                         "type":"string",
                         "value":"font\/silver.ttf"
                        }, 
                        {
                         "name":"size",
                         "type":"int",
                         "value":11
                        }, 
                        {
                         "name":"strokeColor",
                         "type":"color",
                         "value":"#ff000000"
                        }, 
                        {
                         "name":"stroked",
                         "type":"bool",
                         "value":true
                        }, 
                        {
                         "name":"text",
                         "type":"string",
                         "value":"x\/x"
                        }],
                 "rotation":0,
                 "type":"label",
                 "visible":true,
                 "width":19.3253,
                 "x":84.5871833333333,
                 "y":6.399625
                }, 
                {
                 "height":10.2348,
                 "id":69,
                 "name":"mana",
                 "properties":[
                        {
                         "name":"align",
                         "type":"string",
                         "value":"left"
                        }, 
                        {
                         "name":"color",
                         "type":"color",
                         "value":"#ffffffff"
                        }, 
                        {
                         "name":"font",
                         "type":"string",
                         "value":"font\/silver.ttf"
                        }, 
                        {
                         "name":"size",
                         "type":"int",
                         "value":11
                        }, 
                        {
                         "name":"strokeColor",
                         "type":"color",
                         "value":"#ff000000"
                        }, 
                        {
                         "name":"stroked",
                         "type":"bool",
                         "value":true
                        }, 
                        {
                         "name":"text",
                         "type":"string",
                         "value":"x\/x"
                        }],
                 "rotation":0,
                 "type":"label",
                 "visible":true,
                 "width":19.3253,
                 "x":92.4621833333334,
                 "y":25.8580083333333
                }, 
                {
                 "height":10.2348,
                 "id":78,
                 "name":"coin",
                 "properties":[
                        {
                         "name":"align",
                         "type":"string",
                         "value":"right"
                        }, 
                        {
                         "name":"color",
                         "type":"color",
                         "value":"#ffffffff"
                        }, 
                        {
                         "name":"font",
                         "type":"string",
                         "value":"font\/silver.ttf"
                        }, 
                        {
                         "name":"size",
                         "type":"int",
                         "value":11
                        }, 
                        {
                         "name":"strokeColor",
                         "type":"color",
                         "value":"#ff000000"
                        }, 
                        {
                         "name":"stroked",
                         "type":"bool",
                         "value":true
                        }, 
                        {
                         "name":"text",
                         "type":"string",
                         "value":"9999999"
                        }],
                 "rotation":0,
                 "type":"label",
                 "visible":true,
                 "width":34.9389363636364,
                 "x":82.6440015151515,
                 "y":44.1989174242424
                }, 
                {
                 "height":10.2348,
                 "id":80,
                 "name":"attack",
                 "properties":[
                        {
                         "name":"align",
                         "type":"string",
                         "value":"center"
                        }, 
                        {
                         "name":"color",
                         "type":"color",
                         "value":"#ffffffff"
                        }, 
                        {
                         "name":"font",
                         "type":"string",
                         "value":"font\/silver.ttf"
                        }, 
                        {
                         "name":"size",
                         "type":"int",
                         "value":11
                        }, 
                        {
                         "name":"strokeColor",
                         "type":"color",
                         "value":"#ff000000"
                        }, 
                        {
                         "name":"stroked",
                         "type":"bool",
                         "value":true
                        }, 
                        {
                         "name":"text",
                         "type":"string",
                         "value":"1-100"
                        }],
                 "rotation":0,
                 "type":"label",
                 "visible":true,
                 "width":35.6889363636364,
                 "x":9.7295621212121,
                 "y":43.9489174242424
                }, 
                {
                 "height":10.2348,
                 "id":84,
                 "name":"defend",
                 "properties":[
                        {
                         "name":"align",
                         "type":"string",
                         "value":"center"
                        }, 
                        {
                         "name":"color",
                         "type":"color",
                         "value":"#ffffffff"
                        }, 
                        {
                         "name":"font",
                         "type":"string",
                         "value":"font\/silver.ttf"
                        }, 
                        {
                         "name":"size",
                         "type":"int",
                         "value":11
                        }, 
                        {
                         "name":"strokeColor",
                         "type":"color",
                         "value":"#ff000000"
                        }, 
                        {
                         "name":"stroked",
                         "type":"bool",
                         "value":true
                        }, 
                        {
                         "name":"text",
                         "type":"string",
                         "value":"0%"
                        }],
                 "rotation":0,
                 "type":"label",
                 "visible":true,
                 "width":35.6889363636364,
                 "x":1.9170621212121,
                 "y":25.9489174242424
                }, 
                {
                 "gid":258,
                 "height":18,
                 "id":91,
                 "name":"",
                 "rotation":0,
                 "type":"",
                 "visible":true,
                 "width":18,
                 "x":3.5,
                 "y":-43.25
                }],
         "opacity":1,
         "type":"objectgroup",
         "visible":true,
         "x":0,
         "y":0
        }],
 "nextlayerid":22,
 "nextobjectid":102,
 "orientation":"orthogonal",
 "renderorder":"right-down",
 "tiledversion":"1.3.4",
 "tileheight":32,
 "tilesets":[
        {
         "columns":0,
         "firstgid":1,
         "grid":
            {
             "height":1,
             "orientation":"orthogonal",
             "width":1
            },
         "margin":0,
         "name":"ui",
         "spacing":0,
         "tilecount":3,
         "tileheight":32,
         "tiles":[
                {
                 "id":8,
                 "image":"red.png",
                 "imageheight":32,
                 "imagewidth":32
                }, 
                {
                 "id":9,
                 "image":"black.png",
                 "imageheight":32,
                 "imagewidth":32
                }, 
                {
                 "id":11,
                 "image":"gold.png",
                 "imageheight":32,
                 "imagewidth":32
                }],
         "tilewidth":32
        }, 
        {
         "columns":15,
         "firstgid":13,
         "image":"ui.png",
         "imageheight":480,
         "imagewidth":480,
         "margin":0,
         "name":"ui",
         "spacing":0,
         "tilecount":225,
         "tileheight":32,
         "tilewidth":32
        }, 
        {
         "columns":8,
         "firstgid":238,
         "image":"hud.png",
         "imageheight":144,
         "imagewidth":144,
         "margin":0,
         "name":"hud",
         "spacing":0,
         "tilecount":64,
         "tileheight":18,
         "tilewidth":18
        }, 
        {
         "columns":0,
         "firstgid":302,
         "grid":
            {
             "height":1,
             "orientation":"orthogonal",
             "width":1
            },
         "margin":0,
         "name":"ui",
         "spacing":0,
         "tilecount":3,
         "tileheight":42,
         "tiles":[
                {
                 "id":0,
                 "image":"button_big.png",
                 "imageheight":42,
                 "imagewidth":40
                }, 
                {
                 "id":1,
                 "image":"spellButton.png",
                 "imageheight":42,
                 "imagewidth":40
                }, 
                {
                 "id":2,
                 "image":"tapHelp.png",
                 "imageheight":24,
                 "imagewidth":24
                }],
         "tilewidth":40
        }, 
        {
         "columns":0,
         "firstgid":305,
         "grid":
            {
             "height":1,
             "orientation":"orthogonal",
             "width":1
            },
         "margin":0,
         "name":"ui",
         "spacing":0,
         "tilecount":5,
         "tileheight":44,
         "tiles":[
                {
                 "id":0,
                 "image":"button_big.png",
                 "imageheight":42,
                 "imagewidth":40
                }, 
                {
                 "id":1,
                 "image":"faceBox.png",
                 "imageheight":44,
                 "imagewidth":44
                }, 
                {
                 "id":4,
                 "image":"blue.png",
                 "imageheight":32,
                 "imagewidth":32
                }, 
                {
                 "id":8,
                 "image":"red.png",
                 "imageheight":32,
                 "imagewidth":32
                }, 
                {
                 "id":9,
                 "image":"black.png",
                 "imageheight":32,
                 "imagewidth":32
                }],
         "tilewidth":44
        }],
 "tilewidth":32,
 "type":"map",
 "version":1.2,
 "width":4
}